[npc]
NULL
down
0
12
32
NULL
0
-1
0
false
false
false
[/npc]
[warp]
14
28
15
16
-47
49
0
[/warp]
[warp]
4
7
22
31
-40
-35
0
[/warp]
[warp]
12
7
22
31
-40
-34
0
[/warp]
[warp]
12
13
22
31
-40
-33
0
[/warp]
[warp]
11
20
22
31
-40
-32
0
[/warp]
[warp]
3
32
22
31
-40
-31
0
[/warp]
[warp]
17
13
5
7
-46
-15
0
[/warp]