[npc]
Moltres
up
0
45
10
Moltres,50
1
-1
0
false
false
false
[/npc]
[npc]
Moltres
up
0
46
10
Moltres,50
1
-1
0
false
false
false
[/npc]
[warp]
33
103
18
12
-28
2
0
[/warp]
[warp]
34
103
18
12
-28
2
0
[/warp]
[warp]
35
103
18
12
-28
2
0
[/warp]
[warp]
23
72
11
73
-42
2
0
[/warp]
[warp]
54
65
63
11
-42
2
0
[/warp]
[warp]
40
48
46
19
-28
1
0
[/warp]
[warp]
44
21
40
50
-28
1
0
[/warp]
[warp]
45
21
40
50
-28
1
0
[/warp]
[warp]
46
21
40
50
-28
1
0
[/warp]
[warp]
47
21
40
50
-28
1
0
[/warp]