[warp]
19
70
5
51
22
21
0
[/warp]
[warp]
20
70
5
51
22
21
0
[/warp]
[warp]
20
62
20
41
-42
-38
0
[/warp]
[warp]
20
40
20
63
-42
-38
0
[/warp]
[warp]
17
40
17
19
-42
-38
0
[/warp]
[warp]
17
18
17
41
-42
-38
0
[/warp]