[warp]
22
16
31
10
34
-39
0
[/warp]
[warp]
23
16
31
10
34
-39
0
[/warp]
[npc]
Cynthia
down
255
23
19
Spiritomb,100,Lucario,100,Roserade,100,Milotic,100,Togekiss,100,Garchomp,100
6
-1
0
false
false
false
[/npc]