[npc]
maylene
down
245
26
7
Lunatone,60,Solrock,60,Xatu,60,Claydol,60
4
26
0
false
false
false
[/npc]
[warp]
20
49
6
32
43
-44
0
[/warp]
[warp]
21
49
6
32
43
-44
0
[/warp]