[npc]
Channeler Carly
down
260
8
9
Gastly,24
1
-1
0
false
false
false
[/npc]
[npc]
Channeler Patricia
down
259
9
14
Gastly,22
1
-1
1
false
false
false
[/npc]
[npc]
Channeler Hope
up
260
11
4
Gastly,23
1
-1
2
false
false
false
[/npc]
[warp]
2
10
3
10
-48
-22
0
[/warp]
[warp]
18
10
17
10
-48
-20
0
[/warp]