[npc]
NULL
down
0
11
9
NULL
0
-1
0
false
false
false
[/npc]
[npc]
NULL
down
0
17
9
NULL
0
-1
1
false
false
false
[/npc]
[npc]
Radio Tower Staff
down
279
11
13
NULL
0
-1
2,3
false
false
false
[/npc]
[npc]
Radio Tower Staff
up
317
15
13
NULL
0
-1
4,5
false
false
false
[/npc]
[warp]
9
9
2
2
-31
-42
0
[/warp]
[warp]
15
9
9
3
-32
-44
0
[/warp]
[warp]
25
9
17
3
-32
-44
0
[/warp]
