[npc]
NULL
down
0
4
6
NULL
0
-1
0,1,2,3,4
false
false
false
[/npc]
[npc]
Ticket_Vendor
right
36
3
2
NULL
0
-1
5
false
false
false
[/npc]
[warp]
10
14
18
15
6
-2
0
[/warp]