[npc]
Daughter
left
262
6
5
NULL
0
-1
0,1
false
false
false
[/npc]
[npc]
Citizen
right
274
3
4
NULL
0
-1
2
false
false
false
[/npc]
[warp]
4
8
30
12
6
-4
0
[/warp]
[warp]
5
1
31
7
6
-4
0
[/warp]