[npc]
Sprout Tower Monk
down
276
6
5
NULL
0
-1
0
false
false
false
[/npc]
[npc]
Sprout Tower Monk
down
276
5
9
NULL
0
-1
1
false
false
false
[/npc]
[npc]
Sprout Tower Visitor
up
381
8
10
NULL
0
-1
2,3
false
false
false
[/npc]
[npc]
Sprout Tower Visitor
left
277
10
13
NULL
0
-1
4,5
false
false
false
[/npc]
[npc]
Sage Chow
up
332
2
6
Bellsprout,3,Bellsprout,3,Bellsprout,3
3
-1
6,7
false
false
false
[/npc]
[warp]
8
17
23
9
-3
-2
0
[/warp]
[warp]
9
17
23
9
-3
-2
0
[/warp]
[warp]
5
5
5
4
-50
-45
0
[/warp]
[warp]
16
4
15
4
-50
-45
0
[/warp]
[warp]
1
7
2
7
-50
-45
0
[/warp]
