[warp]
20
6
27
6
11
15
0
[/warp]
[warp]
20
7
27
7
11
15
0
[/warp]
[warp]
20
12
27
12
11
15
0
[/warp]
[warp]
20
13
27
13
11
15
0
[/warp]
[warp]
11
5
4
11
-46
-21
0
[/warp]
[npc]
Biker Dale
down
339
11
15
Gulpin,29
1
-1
0
false
false
false
[/npc]
[npc]
Biker Reese
up
361
12
15
Weezing,31
1
-1
1
false
false
false
[/npc]
[npc]
Biker Jacob
right
315
9
13
Tentacruel,31
1
-1
2
false
false
false
[/npc]
[npc]
Biker Aiden
right
339
5
14
Tentacruel,31,Hypno,35
2
-1
3
false
false
false
[/npc]
[npc]
Biker Dan
right
315
18
74
Gulpin,31,Weezing,35,Weezing,35
3
-1
0
false
false
false
[/npc]
[npc]
Biker Thereon
left
339
8
110
Toxicroak,37
1
-1
1
false
false
false
[/npc]
[npc]
Biker Nash
right
362
22
112
Toxicroak,31,Weezing,31,Magmar,34
3
-1
2
false
false
false
[/npc]
[npc]
Biker Teddy
left
361
6
92
Seviper,34
1
-1
3
false
false
false
[/npc]
[npc]
Biker Ernest
left
315
22
91
Ursaring,34,Azumarill,33
2
-1
2
false
false
false
[/npc]
[npc]
NULL
down
0
5
17
NULL
0
-1
4
false
false
false
[/npc]
[npc]
NULL
down
0
13
77
NULL
0
-1
5
false
false
false
[/npc]
[npc]
NULL
down
0
13
87
NULL
0
-1
6
false
false
false
[/npc]
[npc]
NULL
down
0
11
136
NULL
0
-1
7
false
false
false
[/npc]
