[npc]
NULL
down
0
26
11
NULL
0
-1
0
false
false
false
[/npc]
[npc]
NULL
down
0
18
14
NULL
0
-1
1
false
false
false
[/npc]
[npc]
NULL
down
0
22
18
NULL
0
-1
2
false
false
false
[/npc]
[npc]
NULL
down
0
33
23
NULL
0
-1
3
false
false
false
[/npc]
[npc]
NULL
down
0
38
23
NULL
0
-1
4
false
false
false
[/npc]
[npc]
NULL
down
0
45
23
NULL
0
-1
5,6
false
false
false
[/npc]
[npc]
NULL
down
0
15
29
NULL
0
-1
7,8
false
false
false
[/npc]
[warp]
60
12
14
12
5
-2
0
[/warp]
[warp]
60
13
14
13
5
-2
0
[/warp]
[warp]
60
14
14
14
5
-2
0
[/warp]
[warp]
48
11
15
16
-46
-30
0
[/warp]
[warp]
11
14
5
11
-50
-24
0
[/warp]
[warp]
15
14
19
11
-50
-24
0
[/warp]
[warp]
11
30
6
19
-49
-28
0
[/warp]
[warp]
37
29
8
9
-49
-25
0
[/warp]
[warp]
49
29
5
10
-49
-27
0
[/warp]
[warp]
11
29
5
9
-49
-26
0
[/warp]
[warp]
34
21
4
17
-50
-16
0
[/warp]
[warp]
39
20
5
8
-50
-17
0
[/warp]
[warp]
30
11
12
18
-50
-27
0
[/warp]
[warp]
30
5
2
2
-50
-27
0
[/warp]
[hmobject]
CUT_TREE
53
22
[/hmobject]
[hmobject]
CUT_TREE
40
35
[/hmobject]