[warp]
30
34
25
6
16
0
0
[/warp]
[warp]
31
34
26
6
16
0
0
[/warp]
[warp]
48
31
8
9
16
1
0
[/warp]
[warp]
48
32
8
10
16
1
0
[/warp]
[warp]
10
34
30
5
16
3
0
[/warp]
[warp]
11
34
31
5
16
3
0
[/warp]
[warp]
20
34
37
5
16
3
0
[/warp]
[warp]
21
34
38
5
16
3
0
[/warp]