[warp]
35
84
30
60
45
-44
0
[/warp]
[warp]
16
45
53
34
27
-45
0
[/warp]
[warp]
16
46
53
34
27
-45
0
[/warp]
[warp]
16
47
53
34
27
-45
0
[/warp]
[warp]
20
57
53
43
27
-45
0
[/warp]
[warp]
20
58
53
43
27
-45
0
[/warp]
[warp]
20
59
53
43
27
-45
0
[/warp]
[warp]
16
29
52
22
27
-45
0
[/warp]
[warp]
16
30
52
22
27
-45
0
[/warp]
[warp]
16
31
52
22
27
-45
0
[/warp]
[warp]
68
52
18
50
29
-45
0
[/warp]
[warp]
70
33
18
39
29
-45
0
[/warp]
[warp]
72
59
17
58
29
-45
0
[/warp]
[warp]
72
46
18
65
28
-45
0
[/warp]
[warp]
53
20
39
42
45
-44
0
[/warp]