[warp]
87
34
88
67
47
7
0
[/warp]
[warp]
87
35
88
68
47
7
0
[/warp]
[warp]
39
34
15
67
47
7
0
[/warp]
[warp]
39
35
15
68
47
7
0
[/warp]
[npc]
Ted
left
351
31
33
NULL
0
-1
0
false
false
false
[/npc]
[npc]
Mark
down
281
104
33
NULL
0
-1
1
false
false
false
[/npc]
[npc]
Sam
up
273
94
29
NULL
0
-1
2
false
false
false
[/npc]
[npc]
Waiter
down
365
91
35
NULL
0
-1
3
false
false
false
[/npc]
[npc]
Ticket_Vendor
right
36
34
34
NULL
0
-1
0
false
false
false
[/npc]

