[npc]
Norman
down
102
40
8
vigoroth,50,Slaking,50,Spinda,50,Linoone,50
4
20
0
false
false
false
[/npc]
[warp]
40
100
15
8
23
23
0
[/warp]
[warp]
41
100
15
8
23
23
0
[/warp]
[warp]
43
94
48
79
7
47
0
[/warp]
[warp]
48
79
43
95
7
47
0
[/warp]
[warp]
33
79
37
95
7
47
0
[/warp]
[warp]
37
94
33
79
7
47
0
[/warp]
[warp]
33
73
37
58
7
47
0
[/warp]
[warp]
37
58
33
74
7
47
0
[/warp]
[warp]
27
73
32
58
7
47
0
[/warp]
[warp]
32
58
27
74
7
47
0
[/warp]
[warp]
43
52
48
37
7
47
0
[/warp]
[warp]
48
37
43
53
7
47
0
[/warp]
[warp]
43
13
48
32
7
47
0
[/warp]
[warp]
48
31
43
13
7
47
0
[/warp]
[warp]
37
13
32
32
7
47
0
[/warp]
[warp]
32
31
37
13
7
47
0
[/warp]
[warp]
32
37
37
53
7
47
0
[/warp]
[warp]
37
52
32
37
7
47
0
[/warp]
[warp]
32
52
26
37
7
47
0
[/warp]
[warp]
26
37
32
53
7
47
0
[/warp]