[npc]
Winona
down
102
23
17
Swablu,60,Tropius,60,Skarmory,60,Pellipper,60,Altaria,60
5
21
0
false
false
false
[/npc]
[warp]
23
42
22
10
29
20
0
[/warp]
[warp]
24
42
22
10
29
20
0
[/warp]